Inspecting 49 files
...........CCCCC..CC..C.C...CCCC.CC..C.C.....C...

Offenses:

app/mailers/application_mailer.rb:1:1: C: Style/Documentation: Missing top-level class documentation comment.
class ApplicationMailer < ActionMailer::Base
^^^^^
app/controllers/application_controller.rb:1:1: C: Style/Documentation: Missing top-level class documentation comment.
class ApplicationController < ActionController::Base
^^^^^
app/controllers/base_pages_controller.rb:1:1: C: Style/Documentation: Missing top-level class documentation comment.
class BasePagesController < ApplicationController
^^^^^
app/helpers/application_helper.rb:1:1: C: Style/Documentation: Missing top-level module documentation comment.
module ApplicationHelper
^^^^^^
app/helpers/base_pages_helper.rb:1:1: C: Style/Documentation: Missing top-level module documentation comment.
module BasePagesHelper
^^^^^^
app/models/application_record.rb:1:1: C: Style/Documentation: Missing top-level class documentation comment.
class ApplicationRecord < ActiveRecord::Base
^^^^^
app/models/entry.rb:5:1: C: Style/Documentation: Missing top-level class documentation comment.
class Entry
^^^^^
app/models/entry.rb:19:3: C: Metrics/AbcSize: Assignment Branch Condition size for scrape is too high. [33.3/15]
  def self.scrape(count, source) ...
  ^^^^^^^^^^^^^^^^^^^^^^^^^^^^^^
app/models/entry.rb:19:3: C: Metrics/MethodLength: Method has too many lines. [21/10]
  def self.scrape(count, source) ...
  ^^^^^^^^^^^^^^^^^^^^^^^^^^^^^^
app/models/entry.rb:27:81: C: Metrics/LineLength: Line is too long. [103/80]
      link_base = entry.css(scrape_atts[:title_split])[0]['href'].to_s.gsub(scrape_atts[:link_sub], '')
                                                                                ^^^^^^^^^^^^^^^^^^^^^^^
app/models/entry.rb:49:1: C: Style/Documentation: Missing top-level class documentation comment.
class Summary
^^^^^
bin/update:4:1: C: Style/MixinUsage: include is used at the top level. Use inside class or module.
include FileUtils
^^^^^^^^^^^^^^^^^
bin/setup:4:1: C: Style/MixinUsage: include is used at the top level. Use inside class or module.
include FileUtils
^^^^^^^^^^^^^^^^^
config/puma.rb:10:81: C: Metrics/LineLength: Line is too long. [85/80]
# Specifies the `port` that Puma will listen on to receive requests; default is 3000.
                                                                                ^^^^^
config/environments/production.rb:2:81: C: Metrics/LineLength: Line is too long. [85/80]
  # Settings specified here will take precedence over those in config/application.rb.
                                                                                ^^^^^
config/environments/production.rb:33:81: C: Metrics/LineLength: Line is too long. [102/80]
  # `config.assets.precompile` and `config.assets.version` have moved to config/initializers/assets.rb
                                                                                ^^^^^^^^^^^^^^^^^^^^^^
config/environments/production.rb:45:81: C: Metrics/LineLength: Line is too long. [96/80]
  # config.action_cable.allowed_request_origins = [ 'http://example.com', /http:\/\/example.*/ ]
                                                                                ^^^^^^^^^^^^^^^^
config/environments/production.rb:47:81: C: Metrics/LineLength: Line is too long. [96/80]
  # Force all access to the app over SSL, use Strict-Transport-Security, and use secure cookies.
                                                                                ^^^^^^^^^^^^^^^^
config/environments/production.rb:60:81: C: Metrics/LineLength: Line is too long. [83/80]
  # Use a real queuing backend for Active Job (and separate queues per environment)
                                                                                ^^^
config/environments/production.rb:66:81: C: Metrics/LineLength: Line is too long. [100/80]
  # Set this to true and configure the email server for immediate delivery to raise delivery errors.
                                                                                ^^^^^^^^^^^^^^^^^^^^
config/environments/production.rb:81:81: C: Metrics/LineLength: Line is too long. [83/80]
  # config.logger = ActiveSupport::TaggedLogging.new(Syslog::Logger.new 'app-name')
                                                                                ^^^
config/environments/development.rb:2:81: C: Metrics/LineLength: Line is too long. [85/80]
  # Settings specified here will take precedence over those in config/application.rb.
                                                                                ^^^^^
config/environments/test.rb:2:81: C: Metrics/LineLength: Line is too long. [85/80]
  # Settings specified here will take precedence over those in config/application.rb.
                                                                                ^^^^^
config/application.rb:10:3: C: Style/Documentation: Missing top-level class documentation comment.
  class Application < Rails::Application
  ^^^^^
config/application.rb:14:81: C: Metrics/LineLength: Line is too long. [82/80]
    # Settings in config/environments/* take precedence over those specified here.
                                                                                ^^
config/initializers/backtrace_silencers.rb:3:81: C: Metrics/LineLength: Line is too long. [107/80]
# You can add backtrace silencers for libraries that you're using but don't wish to see in your backtraces.
                                                                                ^^^^^^^^^^^^^^^^^^^^^^^^^^^
config/initializers/backtrace_silencers.rb:6:81: C: Metrics/LineLength: Line is too long. [112/80]
# You can also remove all the silencers if you're trying to debug a problem that might stem from framework code.
                                                                                ^^^^^^^^^^^^^^^^^^^^^^^^^^^^^^^^
config/initializers/wrap_parameters.rb:6:81: C: Metrics/LineLength: Line is too long. [96/80]
# Enable parameter wrapping for JSON. You can disable this by setting :format to an empty array.
                                                                                ^^^^^^^^^^^^^^^^
config/initializers/simple_form.rb:9:81: C: Metrics/LineLength: Line is too long. [96/80]
                            hint_class: :field_with_hint, error_class: :field_with_errors do |b|
                                                                                ^^^^^^^^^^^^^^^^
config/initializers/simple_form.rb:90:81: C: Metrics/LineLength: Line is too long. [92/80]
  # You can wrap a collection of radio/check boxes in a pre-defined tag, defaulting to none.
                                                                                ^^^^^^^^^^^^
config/initializers/simple_form.rb:93:81: C: Metrics/LineLength: Line is too long. [83/80]
  # You can define the class to use on all collection wrappers. Defaulting to none.
                                                                                ^^^
config/initializers/simple_form.rb:104:81: C: Metrics/LineLength: Line is too long. [91/80]
  # config.label_text = lambda { |label, required, explicit_label| "#{required} #{label}" }
                                                                                ^^^^^^^^^^^
config/initializers/simple_form.rb:119:81: C: Metrics/LineLength: Line is too long. [87/80]
  # Tell browsers whether to use the native HTML5 validations (novalidate form option).
                                                                                ^^^^^^^
config/initializers/simple_form.rb:120:81: C: Metrics/LineLength: Line is too long. [89/80]
  # These validations are enabled in SimpleForm's internal config but disabled by default
                                                                                ^^^^^^^^^
config/initializers/simple_form.rb:121:81: C: Metrics/LineLength: Line is too long. [91/80]
  # in this configuration, which is recommended due to some quirks from different browsers.
                                                                                ^^^^^^^^^^^
config/initializers/simple_form.rb:122:81: C: Metrics/LineLength: Line is too long. [93/80]
  # To stop SimpleForm from generating the novalidate option, enabling the HTML5 validations,
                                                                                ^^^^^^^^^^^^^
config/initializers/simple_form.rb:135:81: C: Metrics/LineLength: Line is too long. [85/80]
  # type as key and the wrapper that will be used for all inputs with specified type.
                                                                                ^^^^^
test/test_helper.rb:6:7: C: Style/ClassAndModuleChildren: Use nested module/class definitions instead of compact style.
class ActiveSupport::TestCase
      ^^^^^^^^^^^^^^^^^^^^^^^
test/test_helper.rb:7:81: C: Metrics/LineLength: Line is too long. [82/80]
  # Setup all fixtures in test/fixtures/*.yml for all tests in alphabetical order.
                                                                                ^^

49 files inspected, 39 offenses detected
